^C:\USERS\АЛЕКСАНДР\SOURCE\REPOS\HASH_OPEN_ADRESSING\HASH_OPEN_ADRESSING\DEBUG\SOURCE.OBJ
C:\USERS\Александр\SOURCE\REPOS\HASH_OPEN_ADRESSING\DEBUG\HASH_OPEN_ADRESSING.EXE
C:\USERS\Александр\SOURCE\REPOS\HASH_OPEN_ADRESSING\DEBUG\HASH_OPEN_ADRESSING.ILK
C:\USERS\АЛЕКСАНДР\SOURCE\REPOS\HASH_OPEN_ADRESSING\DEBUG\HASH_OPEN_ADRESSING.PDB
